<?xml version="1.0" encoding="utf-8"  standalone="no"?>
<svg 
 viewBox="0 0 1280 720"
 xmlns="http://www.w3.org/2000/svg"
 xmlns:xlink="http://www.w3.org/1999/xlink"
>

<title>Gnuplot</title>
<desc>Produced by GNUPLOT 5.2 patchlevel 6 </desc>

<g id="gnuplot_canvas">

<rect x="0" y="0" width="1280" height="720" fill="none"/>
<defs>

	<circle id='gpDot' r='0.5' stroke-width='0.5' stroke='currentColor'/>
	<path id='gpPt0' stroke-width='0.222' stroke='currentColor' d='M-1,0 h2 M0,-1 v2'/>
	<path id='gpPt1' stroke-width='0.222' stroke='currentColor' d='M-1,-1 L1,1 M1,-1 L-1,1'/>
	<path id='gpPt2' stroke-width='0.222' stroke='currentColor' d='M-1,0 L1,0 M0,-1 L0,1 M-1,-1 L1,1 M-1,1 L1,-1'/>
	<rect id='gpPt3' stroke-width='0.222' stroke='currentColor' x='-1' y='-1' width='2' height='2'/>
	<rect id='gpPt4' stroke-width='0.222' stroke='currentColor' fill='currentColor' x='-1' y='-1' width='2' height='2'/>
	<circle id='gpPt5' stroke-width='0.222' stroke='currentColor' cx='0' cy='0' r='1'/>
	<use xlink:href='#gpPt5' id='gpPt6' fill='currentColor' stroke='none'/>
	<path id='gpPt7' stroke-width='0.222' stroke='currentColor' d='M0,-1.33 L-1.33,0.67 L1.33,0.67 z'/>
	<use xlink:href='#gpPt7' id='gpPt8' fill='currentColor' stroke='none'/>
	<use xlink:href='#gpPt7' id='gpPt9' stroke='currentColor' transform='rotate(180)'/>
	<use xlink:href='#gpPt9' id='gpPt10' fill='currentColor' stroke='none'/>
	<use xlink:href='#gpPt3' id='gpPt11' stroke='currentColor' transform='rotate(45)'/>
	<use xlink:href='#gpPt11' id='gpPt12' fill='currentColor' stroke='none'/>
	<path id='gpPt13' stroke-width='0.222' stroke='currentColor' d='M0,1.330 L1.265,0.411 L0.782,-1.067 L-0.782,-1.076 L-1.265,0.411 z'/>
	<use xlink:href='#gpPt13' id='gpPt14' fill='currentColor' stroke='none'/>
	<filter id='textbox' filterUnits='objectBoundingBox' x='0' y='0' height='1' width='1'>
	  <feFlood flood-color='white' flood-opacity='1' result='bgnd'/>
	  <feComposite in='SourceGraphic' in2='bgnd' operator='atop'/>
	</filter>
	<filter id='greybox' filterUnits='objectBoundingBox' x='0' y='0' height='1' width='1'>
	  <feFlood flood-color='lightgrey' flood-opacity='1' result='grey'/>
	  <feComposite in='SourceGraphic' in2='grey' operator='atop'/>
	</filter>
</defs>
<g fill="none" color="white" stroke="currentColor" stroke-width="1.00" stroke-linecap="butt" stroke-linejoin="miter">
</g>
<g fill="none" color="black" stroke="currentColor" stroke-width="1.00" stroke-linecap="butt" stroke-linejoin="miter">
	<path stroke='black'  d='M71.9,662.4 L80.9,662.4  '/>	<g transform="translate(63.6,666.3)" stroke="none" fill="black" font-family="Helvetica" font-size="12.00"  text-anchor="end">
		<text><tspan font-family="Helvetica" > 0</tspan></text>
	</g>
</g>
<g fill="none" color="black" stroke="currentColor" stroke-width="1.00" stroke-linecap="butt" stroke-linejoin="miter">
	<path stroke='black'  d='M71.9,540.7 L80.9,540.7  '/>	<g transform="translate(63.6,544.6)" stroke="none" fill="black" font-family="Helvetica" font-size="12.00"  text-anchor="end">
		<text><tspan font-family="Helvetica" > 20</tspan></text>
	</g>
</g>
<g fill="none" color="black" stroke="currentColor" stroke-width="1.00" stroke-linecap="butt" stroke-linejoin="miter">
	<path stroke='black'  d='M71.9,419.1 L80.9,419.1  '/>	<g transform="translate(63.6,423.0)" stroke="none" fill="black" font-family="Helvetica" font-size="12.00"  text-anchor="end">
		<text><tspan font-family="Helvetica" > 40</tspan></text>
	</g>
</g>
<g fill="none" color="black" stroke="currentColor" stroke-width="1.00" stroke-linecap="butt" stroke-linejoin="miter">
	<path stroke='black'  d='M71.9,297.4 L80.9,297.4  '/>	<g transform="translate(63.6,301.3)" stroke="none" fill="black" font-family="Helvetica" font-size="12.00"  text-anchor="end">
		<text><tspan font-family="Helvetica" > 60</tspan></text>
	</g>
</g>
<g fill="none" color="black" stroke="currentColor" stroke-width="1.00" stroke-linecap="butt" stroke-linejoin="miter">
	<path stroke='black'  d='M71.9,175.8 L80.9,175.8  '/>	<g transform="translate(63.6,179.7)" stroke="none" fill="black" font-family="Helvetica" font-size="12.00"  text-anchor="end">
		<text><tspan font-family="Helvetica" > 80</tspan></text>
	</g>
</g>
<g fill="none" color="black" stroke="currentColor" stroke-width="1.00" stroke-linecap="butt" stroke-linejoin="miter">
	<path stroke='black'  d='M71.9,54.1 L80.9,54.1  '/>	<g transform="translate(63.6,58.0)" stroke="none" fill="black" font-family="Helvetica" font-size="12.00"  text-anchor="end">
		<text><tspan font-family="Helvetica" > 100</tspan></text>
	</g>
</g>
<g fill="none" color="black" stroke="currentColor" stroke-width="1.00" stroke-linecap="butt" stroke-linejoin="miter">
	<path stroke='black'  d='M98.8,662.4 L98.8,653.4  '/>	<g transform="translate(98.8,684.3)" stroke="none" fill="black" font-family="Helvetica" font-size="12.00"  text-anchor="middle">
		<text><tspan font-family="Helvetica" > 250</tspan></text>
	</g>
</g>
<g fill="none" color="black" stroke="currentColor" stroke-width="1.00" stroke-linecap="butt" stroke-linejoin="miter">
	<path stroke='black'  d='M203.1,662.4 L203.1,653.4  '/>	<g transform="translate(203.1,684.3)" stroke="none" fill="black" font-family="Helvetica" font-size="12.00"  text-anchor="middle">
		<text><tspan font-family="Helvetica" > 300</tspan></text>
	</g>
</g>
<g fill="none" color="black" stroke="currentColor" stroke-width="1.00" stroke-linecap="butt" stroke-linejoin="miter">
	<path stroke='black'  d='M307.4,662.4 L307.4,653.4  '/>	<g transform="translate(307.4,684.3)" stroke="none" fill="black" font-family="Helvetica" font-size="12.00"  text-anchor="middle">
		<text><tspan font-family="Helvetica" > 350</tspan></text>
	</g>
</g>
<g fill="none" color="black" stroke="currentColor" stroke-width="1.00" stroke-linecap="butt" stroke-linejoin="miter">
	<path stroke='black'  d='M411.7,662.4 L411.7,653.4  '/>	<g transform="translate(411.7,684.3)" stroke="none" fill="black" font-family="Helvetica" font-size="12.00"  text-anchor="middle">
		<text><tspan font-family="Helvetica" > 400</tspan></text>
	</g>
</g>
<g fill="none" color="black" stroke="currentColor" stroke-width="1.00" stroke-linecap="butt" stroke-linejoin="miter">
	<path stroke='black'  d='M516.0,662.4 L516.0,653.4  '/>	<g transform="translate(516.0,684.3)" stroke="none" fill="black" font-family="Helvetica" font-size="12.00"  text-anchor="middle">
		<text><tspan font-family="Helvetica" > 450</tspan></text>
	</g>
</g>
<g fill="none" color="black" stroke="currentColor" stroke-width="1.00" stroke-linecap="butt" stroke-linejoin="miter">
	<path stroke='black'  d='M620.3,662.4 L620.3,653.4  '/>	<g transform="translate(620.3,684.3)" stroke="none" fill="black" font-family="Helvetica" font-size="12.00"  text-anchor="middle">
		<text><tspan font-family="Helvetica" > 500</tspan></text>
	</g>
</g>
<g fill="none" color="black" stroke="currentColor" stroke-width="1.00" stroke-linecap="butt" stroke-linejoin="miter">
	<path stroke='black'  d='M724.5,662.4 L724.5,653.4  '/>	<g transform="translate(724.5,684.3)" stroke="none" fill="black" font-family="Helvetica" font-size="12.00"  text-anchor="middle">
		<text><tspan font-family="Helvetica" > 550</tspan></text>
	</g>
</g>
<g fill="none" color="black" stroke="currentColor" stroke-width="1.00" stroke-linecap="butt" stroke-linejoin="miter">
	<path stroke='black'  d='M828.8,662.4 L828.8,653.4  '/>	<g transform="translate(828.8,684.3)" stroke="none" fill="black" font-family="Helvetica" font-size="12.00"  text-anchor="middle">
		<text><tspan font-family="Helvetica" > 600</tspan></text>
	</g>
</g>
<g fill="none" color="black" stroke="currentColor" stroke-width="1.00" stroke-linecap="butt" stroke-linejoin="miter">
	<path stroke='black'  d='M933.1,662.4 L933.1,653.4  '/>	<g transform="translate(933.1,684.3)" stroke="none" fill="black" font-family="Helvetica" font-size="12.00"  text-anchor="middle">
		<text><tspan font-family="Helvetica" > 650</tspan></text>
	</g>
</g>
<g fill="none" color="black" stroke="currentColor" stroke-width="1.00" stroke-linecap="butt" stroke-linejoin="miter">
	<path stroke='black'  d='M970.7,662.4 L961.7,662.4  '/>	<g transform="translate(979.0,666.3)" stroke="none" fill="black" font-family="Helvetica" font-size="12.00"  text-anchor="start">
		<text><tspan font-family="Helvetica" > 0</tspan></text>
	</g>
</g>
<g fill="none" color="black" stroke="currentColor" stroke-width="1.00" stroke-linecap="butt" stroke-linejoin="miter">
	<path stroke='black'  d='M970.7,586.4 L961.7,586.4  '/>	<g transform="translate(979.0,590.3)" stroke="none" fill="black" font-family="Helvetica" font-size="12.00"  text-anchor="start">
		<text><tspan font-family="Helvetica" > 2x10</tspan><tspan font-family="Helvetica"  font-size="9.6" dy="-6.00px">-9</tspan><tspan font-size="12.0" dy="6.00"></tspan></text>
	</g>
</g>
<g fill="none" color="black" stroke="currentColor" stroke-width="1.00" stroke-linecap="butt" stroke-linejoin="miter">
	<path stroke='black'  d='M970.7,510.3 L961.7,510.3  '/>	<g transform="translate(979.0,514.2)" stroke="none" fill="black" font-family="Helvetica" font-size="12.00"  text-anchor="start">
		<text><tspan font-family="Helvetica" > 4x10</tspan><tspan font-family="Helvetica"  font-size="9.6" dy="-6.00px">-9</tspan><tspan font-size="12.0" dy="6.00"></tspan></text>
	</g>
</g>
<g fill="none" color="black" stroke="currentColor" stroke-width="1.00" stroke-linecap="butt" stroke-linejoin="miter">
	<path stroke='black'  d='M970.7,434.3 L961.7,434.3  '/>	<g transform="translate(979.0,438.2)" stroke="none" fill="black" font-family="Helvetica" font-size="12.00"  text-anchor="start">
		<text><tspan font-family="Helvetica" > 6x10</tspan><tspan font-family="Helvetica"  font-size="9.6" dy="-6.00px">-9</tspan><tspan font-size="12.0" dy="6.00"></tspan></text>
	</g>
</g>
<g fill="none" color="black" stroke="currentColor" stroke-width="1.00" stroke-linecap="butt" stroke-linejoin="miter">
	<path stroke='black'  d='M970.7,358.2 L961.7,358.2  '/>	<g transform="translate(979.0,362.1)" stroke="none" fill="black" font-family="Helvetica" font-size="12.00"  text-anchor="start">
		<text><tspan font-family="Helvetica" > 8x10</tspan><tspan font-family="Helvetica"  font-size="9.6" dy="-6.00px">-9</tspan><tspan font-size="12.0" dy="6.00"></tspan></text>
	</g>
</g>
<g fill="none" color="black" stroke="currentColor" stroke-width="1.00" stroke-linecap="butt" stroke-linejoin="miter">
	<path stroke='black'  d='M970.7,282.2 L961.7,282.2  '/>	<g transform="translate(979.0,286.1)" stroke="none" fill="black" font-family="Helvetica" font-size="12.00"  text-anchor="start">
		<text><tspan font-family="Helvetica" > 1x10</tspan><tspan font-family="Helvetica"  font-size="9.6" dy="-6.00px">-8</tspan><tspan font-size="12.0" dy="6.00"></tspan></text>
	</g>
</g>
<g fill="none" color="black" stroke="currentColor" stroke-width="1.00" stroke-linecap="butt" stroke-linejoin="miter">
	<path stroke='black'  d='M970.7,206.2 L961.7,206.2  '/>	<g transform="translate(979.0,210.1)" stroke="none" fill="black" font-family="Helvetica" font-size="12.00"  text-anchor="start">
		<text><tspan font-family="Helvetica" > 1.2x10</tspan><tspan font-family="Helvetica"  font-size="9.6" dy="-6.00px">-8</tspan><tspan font-size="12.0" dy="6.00"></tspan></text>
	</g>
</g>
<g fill="none" color="black" stroke="currentColor" stroke-width="1.00" stroke-linecap="butt" stroke-linejoin="miter">
	<path stroke='black'  d='M970.7,130.1 L961.7,130.1  '/>	<g transform="translate(979.0,134.0)" stroke="none" fill="black" font-family="Helvetica" font-size="12.00"  text-anchor="start">
		<text><tspan font-family="Helvetica" > 1.4x10</tspan><tspan font-family="Helvetica"  font-size="9.6" dy="-6.00px">-8</tspan><tspan font-size="12.0" dy="6.00"></tspan></text>
	</g>
</g>
<g fill="none" color="black" stroke="currentColor" stroke-width="1.00" stroke-linecap="butt" stroke-linejoin="miter">
	<path stroke='black'  d='M970.7,54.1 L961.7,54.1  '/>	<g transform="translate(979.0,58.0)" stroke="none" fill="black" font-family="Helvetica" font-size="12.00"  text-anchor="start">
		<text><tspan font-family="Helvetica" > 1.6x10</tspan><tspan font-family="Helvetica"  font-size="9.6" dy="-6.00px">-8</tspan><tspan font-size="12.0" dy="6.00"></tspan></text>
	</g>
</g>
<g fill="none" color="black" stroke="currentColor" stroke-width="1.00" stroke-linecap="butt" stroke-linejoin="miter">
</g>
<g fill="none" color="black" stroke="currentColor" stroke-width="1.00" stroke-linecap="butt" stroke-linejoin="miter">
	<path stroke='black'  d='M71.9,54.1 L71.9,662.4 L970.7,662.4 L970.7,54.1 L71.9,54.1 Z  '/></g>
<g fill="none" color="black" stroke="currentColor" stroke-width="1.00" stroke-linecap="butt" stroke-linejoin="miter">
	<g transform="translate(16.3,358.3) rotate(270)" stroke="none" fill="black" font-family="Helvetica" font-size="12.00"  text-anchor="middle">
		<text><tspan font-family="Helvetica" >Iterations</tspan></text>
	</g>
</g>
<g fill="none" color="black" stroke="currentColor" stroke-width="1.00" stroke-linecap="butt" stroke-linejoin="miter">
	<g transform="translate(1074.2,358.3) rotate(270)" stroke="none" fill="black" font-family="Helvetica" font-size="12.00"  text-anchor="middle">
		<text><tspan font-family="Helvetica" >Density (a.u.)</tspan></text>
	</g>
</g>
<g fill="none" color="black" stroke="currentColor" stroke-width="1.00" stroke-linecap="butt" stroke-linejoin="miter">
	<g transform="translate(521.3,711.3)" stroke="none" fill="black" font-family="Helvetica" font-size="12.00"  text-anchor="middle">
		<text><tspan font-family="Helvetica" >Average time (ms)</tspan></text>
	</g>
</g>
<g fill="none" color="black" stroke="currentColor" stroke-width="1.00" stroke-linecap="butt" stroke-linejoin="miter">
	<g transform="translate(521.3,31.0)" stroke="none" fill="black" font-family="Helvetica" font-size="12.00"  text-anchor="middle">
		<text><tspan font-family="Helvetica" >set_bench/sled</tspan></text>
	</g>
</g>
	<g id="gnuplot_plot_1" ><title>PDF</title>
<g fill="none" color="black" stroke="currentColor" stroke-width="1.00" stroke-linecap="butt" stroke-linejoin="miter">
	<g transform="translate(1147.1,67.0)" stroke="none" fill="black" font-family="Helvetica" font-size="12.00"  text-anchor="start">
		<text><tspan font-family="Helvetica" >PDF</tspan></text>
	</g>
</g>
<g fill="none" color="black" stroke="currentColor" stroke-width="1.00" stroke-linecap="butt" stroke-linejoin="miter">
	<g stroke='none' shape-rendering='crispEdges'>
		<polygon fill = 'rgb( 31, 120, 180)' fill-opacity = '0.250000' points = '1096.6,67.6 1138.8,67.6 1138.8,58.6 1096.6,58.6 '/>
		<polygon fill = 'rgb( 31, 120, 180)' fill-opacity = '0.250000' points = '71.9,662.1 73.7,662.1 75.5,662.0 77.3,661.9 79.1,661.9 80.9,661.8 82.7,661.7 84.5,661.6 86.3,661.4 88.1,661.3 89.9,661.1 91.7,660.9 93.5,660.7 95.3,660.5 97.1,660.2 98.9,659.9
100.7,659.5 102.5,659.1 104.3,658.7 106.1,658.2 107.9,657.6 109.7,657.0 111.5,656.3 113.3,655.6 115.1,654.7 116.9,653.8 118.7,652.8 120.5,651.6 122.3,650.4 124.1,649.0 125.9,647.5 127.7,645.8
129.5,644.0 131.3,642.1 133.1,639.9 134.9,637.6 136.7,635.0 138.5,632.3 140.3,629.3 142.1,626.1 143.9,622.7 145.7,619.0 147.6,615.0 149.4,610.7 151.2,606.2 153.0,601.3 154.8,596.2 156.6,590.7
158.4,584.9 160.2,578.7 162.0,572.2 163.8,565.3 165.6,558.1 167.4,550.5 169.2,542.6 171.0,534.3 172.8,525.6 174.6,516.6 176.4,507.3 178.2,497.6 180.0,487.5 181.8,477.2 183.6,466.5 185.4,455.5
187.2,444.3 189.0,432.8 190.8,421.1 192.6,409.2 194.4,397.1 196.2,384.8 198.0,372.4 199.8,359.9 201.6,347.4 203.4,334.9 205.2,322.3 207.0,309.8 208.8,297.4 210.6,285.2 212.4,273.1 214.2,261.2
216.0,249.5 217.8,238.2 219.6,227.1 221.4,216.5 223.2,206.2 225.0,196.4 226.8,187.0 228.6,178.2 230.4,169.8 232.2,162.1 234.0,154.9 235.8,148.3 237.6,142.4 239.4,137.1 241.2,132.5 243.0,128.6
244.8,125.3 246.6,122.8 248.4,120.9 250.2,119.8 252.0,119.3 253.8,119.6 255.6,120.5 257.4,122.0 259.2,124.3 261.0,127.1 262.8,130.6 264.6,134.7 266.4,139.4 268.2,144.6 270.0,150.3 271.8,156.5
273.6,163.1 275.4,170.2 277.2,177.7 279.0,185.5 280.8,193.7 282.6,202.1 284.4,210.8 286.2,219.8 288.0,228.9 289.8,238.2 291.6,247.7 293.4,257.2 295.2,266.8 297.1,276.5 298.9,286.2 300.7,295.9
302.5,305.6 304.3,315.2 306.1,324.7 307.9,334.2 309.7,343.5 311.5,352.8 313.3,361.9 315.1,370.8 316.9,379.6 318.7,388.3 320.5,396.8 322.3,405.1 324.1,413.2 325.9,421.1 327.7,428.8 329.5,436.4
331.3,443.8 333.1,450.9 334.9,457.9 336.7,464.7 338.5,471.3 340.3,477.7 342.1,484.0 343.9,490.0 345.7,495.9 347.5,501.6 349.3,507.2 351.1,512.6 352.9,517.8 354.7,522.9 356.5,527.8 358.3,532.6
360.1,537.3 361.9,541.8 363.7,546.1 365.5,550.4 367.3,554.5 369.1,558.4 370.9,562.3 372.7,566.0 374.5,569.6 376.3,573.1 378.1,576.5 379.9,579.7 381.7,582.8 383.5,585.8 385.3,588.8 387.1,591.6
388.9,594.2 390.7,596.8 392.5,599.3 394.3,601.7 396.1,603.9 397.9,606.1 399.7,608.2 401.5,610.1 403.3,612.0 405.1,613.8 406.9,615.5 408.7,617.1 410.5,618.6 412.3,620.0 414.1,621.3 415.9,622.5
417.7,623.7 419.5,624.8 421.3,625.8 423.1,626.7 424.9,627.6 426.7,628.4 428.5,629.2 430.3,629.8 432.1,630.5 433.9,631.0 435.7,631.5 437.5,632.0 439.3,632.4 441.1,632.8 442.9,633.2 444.7,633.5
446.6,633.7 448.4,634.0 450.2,634.2 452.0,634.4 453.8,634.6 455.6,634.8 457.4,634.9 459.2,635.0 461.0,635.2 462.8,635.3 464.6,635.4 466.4,635.5 468.2,635.7 470.0,635.8 471.8,635.9 473.6,636.1
475.4,636.2 477.2,636.4 479.0,636.6 480.8,636.8 482.6,637.0 484.4,637.2 486.2,637.5 488.0,637.7 489.8,638.0 491.6,638.3 493.4,638.7 495.2,639.0 497.0,639.4 498.8,639.8 500.6,640.2 502.4,640.6
504.2,641.1 506.0,641.5 507.8,642.0 509.6,642.5 511.4,643.0 513.2,643.5 515.0,644.1 516.8,644.6 518.6,645.2 520.4,645.7 522.2,646.3 524.0,646.8 525.8,647.4 527.6,648.0 529.4,648.5 531.2,649.1
533.0,649.6 534.8,650.2 536.6,650.7 538.4,651.2 540.2,651.8 542.0,652.2 543.8,652.7 545.6,653.2 547.4,653.6 549.2,654.1 551.0,654.5 552.8,654.9 554.6,655.2 556.4,655.6 558.2,655.9 560.0,656.2
561.8,656.4 563.6,656.7 565.4,656.9 567.2,657.1 569.0,657.3 570.8,657.4 572.6,657.5 574.4,657.6 576.2,657.7 578.0,657.7 579.8,657.8 581.6,657.8 583.4,657.7 585.2,657.7 587.0,657.6 588.8,657.5
590.6,657.4 592.4,657.3 594.2,657.1 596.0,657.0 597.9,656.8 599.7,656.6 601.5,656.4 603.3,656.1 605.1,655.9 606.9,655.6 608.7,655.4 610.5,655.1 612.3,654.8 614.1,654.5 615.9,654.2 617.7,653.9
619.5,653.6 621.3,653.3 623.1,653.0 624.9,652.7 626.7,652.4 628.5,652.1 630.3,651.8 632.1,651.5 633.9,651.2 635.7,650.9 637.5,650.7 639.3,650.4 641.1,650.2 642.9,650.0 644.7,649.8 646.5,649.6
648.3,649.4 650.1,649.2 651.9,649.1 653.7,648.9 655.5,648.8 657.3,648.7 659.1,648.7 660.9,648.6 662.7,648.6 664.5,648.6 666.3,648.6 668.1,648.6 669.9,648.7 671.7,648.8 673.5,648.9 675.3,649.0
677.1,649.1 678.9,649.2 680.7,649.4 682.5,649.6 684.3,649.8 686.1,650.0 687.9,650.2 689.7,650.5 691.5,650.8 693.3,651.0 695.1,651.3 696.9,651.6 698.7,651.9 700.5,652.2 702.3,652.5 704.1,652.8
705.9,653.1 707.7,653.5 709.5,653.8 711.3,654.1 713.1,654.5 714.9,654.8 716.7,655.1 718.5,655.4 720.3,655.7 722.1,656.0 723.9,656.3 725.7,656.6 727.5,656.9 729.3,657.2 731.1,657.5 732.9,657.7
734.7,658.0 736.5,658.2 738.3,658.4 740.1,658.6 741.9,658.8 743.7,659.0 745.5,659.2 747.4,659.4 749.2,659.5 751.0,659.6 752.8,659.8 754.6,659.9 756.4,660.0 758.2,660.0 760.0,660.1 761.8,660.2
763.6,660.2 765.4,660.2 767.2,660.2 769.0,660.2 770.8,660.2 772.6,660.2 774.4,660.1 776.2,660.1 778.0,660.0 779.8,659.9 781.6,659.8 783.4,659.7 785.2,659.6 787.0,659.5 788.8,659.4 790.6,659.2
792.4,659.1 794.2,658.9 796.0,658.8 797.8,658.6 799.6,658.4 801.4,658.2 803.2,658.0 805.0,657.8 806.8,657.6 808.6,657.4 810.4,657.3 812.2,657.1 814.0,656.9 815.8,656.7 817.6,656.5 819.4,656.3
821.2,656.1 823.0,656.0 824.8,655.8 826.6,655.6 828.4,655.5 830.2,655.3 832.0,655.2 833.8,655.1 835.6,655.0 837.4,654.9 839.2,654.8 841.0,654.8 842.8,654.7 844.6,654.7 846.4,654.7 848.2,654.7
850.0,654.7 851.8,654.7 853.6,654.7 855.4,654.8 857.2,654.9 859.0,655.0 860.8,655.0 862.6,655.2 864.4,655.3 866.2,655.4 868.0,655.6 869.8,655.7 871.6,655.9 873.4,656.0 875.2,656.2 877.0,656.4
878.8,656.6 880.6,656.8 882.4,657.0 884.2,657.2 886.0,657.4 887.8,657.6 889.6,657.8 891.4,658.0 893.2,658.2 895.0,658.4 896.9,658.6 898.7,658.8 900.5,659.0 902.3,659.2 904.1,659.4 905.9,659.6
907.7,659.7 909.5,659.9 911.3,660.1 913.1,660.2 914.9,660.4 916.7,660.5 918.5,660.7 920.3,660.8 922.1,660.9 923.9,661.0 925.7,661.1 927.5,661.2 929.3,661.3 931.1,661.4 932.9,661.5 934.7,661.6
936.5,661.7 938.3,661.7 940.1,661.8 941.9,661.8 943.7,661.9 945.5,661.9 947.3,662.0 949.1,662.0 950.9,662.1 952.7,662.1 954.5,662.1 956.3,662.2 958.1,662.2 959.9,662.2 961.7,662.2 963.5,662.3
965.3,662.3 967.1,662.3 968.9,662.3 970.7,662.3 970.7,662.4 968.9,662.4 967.1,662.4 965.3,662.4 963.5,662.4 961.7,662.4 959.9,662.4 958.1,662.4 956.3,662.4 954.5,662.4 952.7,662.4 950.9,662.4
949.1,662.4 947.3,662.4 945.5,662.4 943.7,662.4 941.9,662.4 940.1,662.4 938.3,662.4 936.5,662.4 934.7,662.4 932.9,662.4 931.1,662.4 929.3,662.4 927.5,662.4 925.7,662.4 923.9,662.4 922.1,662.4
920.3,662.4 918.5,662.4 916.7,662.4 914.9,662.4 913.1,662.4 911.3,662.4 909.5,662.4 907.7,662.4 905.9,662.4 904.1,662.4 902.3,662.4 900.5,662.4 898.7,662.4 896.9,662.4 895.0,662.4 893.2,662.4
891.4,662.4 889.6,662.4 887.8,662.4 886.0,662.4 884.2,662.4 882.4,662.4 880.6,662.4 878.8,662.4 877.0,662.4 875.2,662.4 873.4,662.4 871.6,662.4 869.8,662.4 868.0,662.4 866.2,662.4 864.4,662.4
862.6,662.4 860.8,662.4 859.0,662.4 857.2,662.4 855.4,662.4 853.6,662.4 851.8,662.4 850.0,662.4 848.2,662.4 846.4,662.4 844.6,662.4 842.8,662.4 841.0,662.4 839.2,662.4 837.4,662.4 835.6,662.4
833.8,662.4 832.0,662.4 830.2,662.4 828.4,662.4 826.6,662.4 824.8,662.4 823.0,662.4 821.2,662.4 819.4,662.4 817.6,662.4 815.8,662.4 814.0,662.4 812.2,662.4 810.4,662.4 808.6,662.4 806.8,662.4
805.0,662.4 803.2,662.4 801.4,662.4 799.6,662.4 797.8,662.4 796.0,662.4 794.2,662.4 792.4,662.4 790.6,662.4 788.8,662.4 787.0,662.4 785.2,662.4 783.4,662.4 781.6,662.4 779.8,662.4 778.0,662.4
776.2,662.4 774.4,662.4 772.6,662.4 770.8,662.4 769.0,662.4 767.2,662.4 765.4,662.4 763.6,662.4 761.8,662.4 760.0,662.4 758.2,662.4 756.4,662.4 754.6,662.4 752.8,662.4 751.0,662.4 749.2,662.4
747.4,662.4 745.5,662.4 743.7,662.4 741.9,662.4 740.1,662.4 738.3,662.4 736.5,662.4 734.7,662.4 732.9,662.4 731.1,662.4 729.3,662.4 727.5,662.4 725.7,662.4 723.9,662.4 722.1,662.4 720.3,662.4
718.5,662.4 716.7,662.4 714.9,662.4 713.1,662.4 711.3,662.4 709.5,662.4 707.7,662.4 705.9,662.4 704.1,662.4 702.3,662.4 700.5,662.4 698.7,662.4 696.9,662.4 695.1,662.4 693.3,662.4 691.5,662.4
689.7,662.4 687.9,662.4 686.1,662.4 684.3,662.4 682.5,662.4 680.7,662.4 678.9,662.4 677.1,662.4 675.3,662.4 673.5,662.4 671.7,662.4 669.9,662.4 668.1,662.4 666.3,662.4 664.5,662.4 662.7,662.4
660.9,662.4 659.1,662.4 657.3,662.4 655.5,662.4 653.7,662.4 651.9,662.4 650.1,662.4 648.3,662.4 646.5,662.4 644.7,662.4 642.9,662.4 641.1,662.4 639.3,662.4 637.5,662.4 635.7,662.4 633.9,662.4
632.1,662.4 630.3,662.4 628.5,662.4 626.7,662.4 624.9,662.4 623.1,662.4 621.3,662.4 619.5,662.4 617.7,662.4 615.9,662.4 614.1,662.4 612.3,662.4 610.5,662.4 608.7,662.4 606.9,662.4 605.1,662.4
603.3,662.4 601.5,662.4 599.7,662.4 597.9,662.4 596.0,662.4 594.2,662.4 592.4,662.4 590.6,662.4 588.8,662.4 587.0,662.4 585.2,662.4 583.4,662.4 581.6,662.4 579.8,662.4 578.0,662.4 576.2,662.4
574.4,662.4 572.6,662.4 570.8,662.4 569.0,662.4 567.2,662.4 565.4,662.4 563.6,662.4 561.8,662.4 560.0,662.4 558.2,662.4 556.4,662.4 554.6,662.4 552.8,662.4 551.0,662.4 549.2,662.4 547.4,662.4
545.6,662.4 543.8,662.4 542.0,662.4 540.2,662.4 538.4,662.4 536.6,662.4 534.8,662.4 533.0,662.4 531.2,662.4 529.4,662.4 527.6,662.4 525.8,662.4 524.0,662.4 522.2,662.4 520.4,662.4 518.6,662.4
516.8,662.4 515.0,662.4 513.2,662.4 511.4,662.4 509.6,662.4 507.8,662.4 506.0,662.4 504.2,662.4 502.4,662.4 500.6,662.4 498.8,662.4 497.0,662.4 495.2,662.4 493.4,662.4 491.6,662.4 489.8,662.4
488.0,662.4 486.2,662.4 484.4,662.4 482.6,662.4 480.8,662.4 479.0,662.4 477.2,662.4 475.4,662.4 473.6,662.4 471.8,662.4 470.0,662.4 468.2,662.4 466.4,662.4 464.6,662.4 462.8,662.4 461.0,662.4
459.2,662.4 457.4,662.4 455.6,662.4 453.8,662.4 452.0,662.4 450.2,662.4 448.4,662.4 446.6,662.4 444.7,662.4 442.9,662.4 441.1,662.4 439.3,662.4 437.5,662.4 435.7,662.4 433.9,662.4 432.1,662.4
430.3,662.4 428.5,662.4 426.7,662.4 424.9,662.4 423.1,662.4 421.3,662.4 419.5,662.4 417.7,662.4 415.9,662.4 414.1,662.4 412.3,662.4 410.5,662.4 408.7,662.4 406.9,662.4 405.1,662.4 403.3,662.4
401.5,662.4 399.7,662.4 397.9,662.4 396.1,662.4 394.3,662.4 392.5,662.4 390.7,662.4 388.9,662.4 387.1,662.4 385.3,662.4 383.5,662.4 381.7,662.4 379.9,662.4 378.1,662.4 376.3,662.4 374.5,662.4
372.7,662.4 370.9,662.4 369.1,662.4 367.3,662.4 365.5,662.4 363.7,662.4 361.9,662.4 360.1,662.4 358.3,662.4 356.5,662.4 354.7,662.4 352.9,662.4 351.1,662.4 349.3,662.4 347.5,662.4 345.7,662.4
343.9,662.4 342.1,662.4 340.3,662.4 338.5,662.4 336.7,662.4 334.9,662.4 333.1,662.4 331.3,662.4 329.5,662.4 327.7,662.4 325.9,662.4 324.1,662.4 322.3,662.4 320.5,662.4 318.7,662.4 316.9,662.4
315.1,662.4 313.3,662.4 311.5,662.4 309.7,662.4 307.9,662.4 306.1,662.4 304.3,662.4 302.5,662.4 300.7,662.4 298.9,662.4 297.1,662.4 295.2,662.4 293.4,662.4 291.6,662.4 289.8,662.4 288.0,662.4
286.2,662.4 284.4,662.4 282.6,662.4 280.8,662.4 279.0,662.4 277.2,662.4 275.4,662.4 273.6,662.4 271.8,662.4 270.0,662.4 268.2,662.4 266.4,662.4 264.6,662.4 262.8,662.4 261.0,662.4 259.2,662.4
257.4,662.4 255.6,662.4 253.8,662.4 252.0,662.4 250.2,662.4 248.4,662.4 246.6,662.4 244.8,662.4 243.0,662.4 241.2,662.4 239.4,662.4 237.6,662.4 235.8,662.4 234.0,662.4 232.2,662.4 230.4,662.4
228.6,662.4 226.8,662.4 225.0,662.4 223.2,662.4 221.4,662.4 219.6,662.4 217.8,662.4 216.0,662.4 214.2,662.4 212.4,662.4 210.6,662.4 208.8,662.4 207.0,662.4 205.2,662.4 203.4,662.4 201.6,662.4
199.8,662.4 198.0,662.4 196.2,662.4 194.4,662.4 192.6,662.4 190.8,662.4 189.0,662.4 187.2,662.4 185.4,662.4 183.6,662.4 181.8,662.4 180.0,662.4 178.2,662.4 176.4,662.4 174.6,662.4 172.8,662.4
171.0,662.4 169.2,662.4 167.4,662.4 165.6,662.4 163.8,662.4 162.0,662.4 160.2,662.4 158.4,662.4 156.6,662.4 154.8,662.4 153.0,662.4 151.2,662.4 149.4,662.4 147.6,662.4 145.7,662.4 143.9,662.4
142.1,662.4 140.3,662.4 138.5,662.4 136.7,662.4 134.9,662.4 133.1,662.4 131.3,662.4 129.5,662.4 127.7,662.4 125.9,662.4 124.1,662.4 122.3,662.4 120.5,662.4 118.7,662.4 116.9,662.4 115.1,662.4
113.3,662.4 111.5,662.4 109.7,662.4 107.9,662.4 106.1,662.4 104.3,662.4 102.5,662.4 100.7,662.4 98.9,662.4 97.1,662.4 95.3,662.4 93.5,662.4 91.7,662.4 89.9,662.4 88.1,662.4 86.3,662.4
84.5,662.4 82.7,662.4 80.9,662.4 79.1,662.4 77.3,662.4 75.5,662.4 73.7,662.4 71.9,662.4 '/>
	</g>
</g>
	</g>
	<g id="gnuplot_plot_2" ><title>Mean</title>
<g fill="none" color="white" stroke="rgb( 31, 120, 180)" stroke-width="2.00" stroke-linecap="butt" stroke-linejoin="miter">
</g>
<g fill="none" color="black" stroke="currentColor" stroke-width="2.00" stroke-linecap="butt" stroke-linejoin="miter">
	<g transform="translate(1147.1,85.0)" stroke="none" fill="black" font-family="Helvetica" font-size="12.00"  text-anchor="start">
		<text><tspan font-family="Helvetica" >Mean</tspan></text>
	</g>
</g>
<g fill="none" color="black" stroke="currentColor" stroke-width="2.00" stroke-linecap="butt" stroke-linejoin="miter">
	<path stroke='rgb( 31, 120, 180)'  d='M1096.6,81.1 L1138.8,81.1 M286.1,662.4 L286.1,54.1  '/></g>
	</g>
	<g id="gnuplot_plot_3" ><title>"Clean" sample</title>
<g fill="none" color="white" stroke="rgb( 31, 120, 180)" stroke-width="1.00" stroke-linecap="butt" stroke-linejoin="miter">
</g>
<g fill="none" color="black" stroke="currentColor" stroke-width="1.00" stroke-linecap="butt" stroke-linejoin="miter">
	<g transform="translate(1147.1,103.0)" stroke="none" fill="black" font-family="Helvetica" font-size="12.00"  text-anchor="start">
		<text><tspan font-family="Helvetica" >"Clean" sample</tspan></text>
	</g>
</g>
<g fill="none" color="black" stroke="currentColor" stroke-width="1.00" stroke-linecap="butt" stroke-linejoin="miter">
	<use xlink:href='#gpPt6' transform='translate(279.4,656.3) scale(3.38)' color='rgb( 31, 120, 180)'/>
	<use xlink:href='#gpPt6' transform='translate(251.8,650.2) scale(3.38)' color='rgb( 31, 120, 180)'/>
	<use xlink:href='#gpPt6' transform='translate(234.0,644.2) scale(3.38)' color='rgb( 31, 120, 180)'/>
	<use xlink:href='#gpPt6' transform='translate(261.0,638.1) scale(3.38)' color='rgb( 31, 120, 180)'/>
	<use xlink:href='#gpPt6' transform='translate(277.4,632.0) scale(3.38)' color='rgb( 31, 120, 180)'/>
	<use xlink:href='#gpPt6' transform='translate(236.1,619.8) scale(3.38)' color='rgb( 31, 120, 180)'/>
	<use xlink:href='#gpPt6' transform='translate(277.9,613.7) scale(3.38)' color='rgb( 31, 120, 180)'/>
	<use xlink:href='#gpPt6' transform='translate(210.7,607.7) scale(3.38)' color='rgb( 31, 120, 180)'/>
	<use xlink:href='#gpPt6' transform='translate(228.1,601.6) scale(3.38)' color='rgb( 31, 120, 180)'/>
	<use xlink:href='#gpPt6' transform='translate(243.0,595.5) scale(3.38)' color='rgb( 31, 120, 180)'/>
	<use xlink:href='#gpPt6' transform='translate(282.5,589.4) scale(3.38)' color='rgb( 31, 120, 180)'/>
	<use xlink:href='#gpPt6' transform='translate(251.9,583.3) scale(3.38)' color='rgb( 31, 120, 180)'/>
	<use xlink:href='#gpPt6' transform='translate(252.4,571.2) scale(3.38)' color='rgb( 31, 120, 180)'/>
	<use xlink:href='#gpPt6' transform='translate(273.6,565.1) scale(3.38)' color='rgb( 31, 120, 180)'/>
	<use xlink:href='#gpPt6' transform='translate(273.6,559.0) scale(3.38)' color='rgb( 31, 120, 180)'/>
	<use xlink:href='#gpPt6' transform='translate(237.8,546.8) scale(3.38)' color='rgb( 31, 120, 180)'/>
	<use xlink:href='#gpPt6' transform='translate(259.1,540.7) scale(3.38)' color='rgb( 31, 120, 180)'/>
	<use xlink:href='#gpPt6' transform='translate(314.3,534.7) scale(3.38)' color='rgb( 31, 120, 180)'/>
	<use xlink:href='#gpPt6' transform='translate(356.2,528.6) scale(3.38)' color='rgb( 31, 120, 180)'/>
	<use xlink:href='#gpPt6' transform='translate(266.8,522.5) scale(3.38)' color='rgb( 31, 120, 180)'/>
	<use xlink:href='#gpPt6' transform='translate(297.0,516.4) scale(3.38)' color='rgb( 31, 120, 180)'/>
	<use xlink:href='#gpPt6' transform='translate(263.7,504.2) scale(3.38)' color='rgb( 31, 120, 180)'/>
	<use xlink:href='#gpPt6' transform='translate(278.2,498.2) scale(3.38)' color='rgb( 31, 120, 180)'/>
	<use xlink:href='#gpPt6' transform='translate(265.6,486.0) scale(3.38)' color='rgb( 31, 120, 180)'/>
	<use xlink:href='#gpPt6' transform='translate(240.5,479.9) scale(3.38)' color='rgb( 31, 120, 180)'/>
	<use xlink:href='#gpPt6' transform='translate(330.7,473.8) scale(3.38)' color='rgb( 31, 120, 180)'/>
	<use xlink:href='#gpPt6' transform='translate(322.6,467.7) scale(3.38)' color='rgb( 31, 120, 180)'/>
	<use xlink:href='#gpPt6' transform='translate(328.8,449.5) scale(3.38)' color='rgb( 31, 120, 180)'/>
	<use xlink:href='#gpPt6' transform='translate(329.8,443.4) scale(3.38)' color='rgb( 31, 120, 180)'/>
	<use xlink:href='#gpPt6' transform='translate(250.0,437.3) scale(3.38)' color='rgb( 31, 120, 180)'/>
	<use xlink:href='#gpPt6' transform='translate(194.7,431.2) scale(3.38)' color='rgb( 31, 120, 180)'/>
	<use xlink:href='#gpPt6' transform='translate(235.0,425.2) scale(3.38)' color='rgb( 31, 120, 180)'/>
	<use xlink:href='#gpPt6' transform='translate(243.8,419.1) scale(3.38)' color='rgb( 31, 120, 180)'/>
	<use xlink:href='#gpPt6' transform='translate(269.9,413.0) scale(3.38)' color='rgb( 31, 120, 180)'/>
	<use xlink:href='#gpPt6' transform='translate(223.2,406.9) scale(3.38)' color='rgb( 31, 120, 180)'/>
	<use xlink:href='#gpPt6' transform='translate(239.7,400.8) scale(3.38)' color='rgb( 31, 120, 180)'/>
	<use xlink:href='#gpPt6' transform='translate(225.2,394.7) scale(3.38)' color='rgb( 31, 120, 180)'/>
	<use xlink:href='#gpPt6' transform='translate(234.8,388.7) scale(3.38)' color='rgb( 31, 120, 180)'/>
	<use xlink:href='#gpPt6' transform='translate(275.6,382.6) scale(3.38)' color='rgb( 31, 120, 180)'/>
	<use xlink:href='#gpPt6' transform='translate(244.1,376.5) scale(3.38)' color='rgb( 31, 120, 180)'/>
	<use xlink:href='#gpPt6' transform='translate(290.0,370.4) scale(3.38)' color='rgb( 31, 120, 180)'/>
	<use xlink:href='#gpPt6' transform='translate(280.7,364.3) scale(3.38)' color='rgb( 31, 120, 180)'/>
	<use xlink:href='#gpPt6' transform='translate(248.7,358.2) scale(3.38)' color='rgb( 31, 120, 180)'/>
	<use xlink:href='#gpPt6' transform='translate(332.6,346.1) scale(3.38)' color='rgb( 31, 120, 180)'/>
	<use xlink:href='#gpPt6' transform='translate(262.9,340.0) scale(3.38)' color='rgb( 31, 120, 180)'/>
	<use xlink:href='#gpPt6' transform='translate(249.7,333.9) scale(3.38)' color='rgb( 31, 120, 180)'/>
	<use xlink:href='#gpPt6' transform='translate(289.3,327.8) scale(3.38)' color='rgb( 31, 120, 180)'/>
	<use xlink:href='#gpPt6' transform='translate(217.9,321.8) scale(3.38)' color='rgb( 31, 120, 180)'/>
	<use xlink:href='#gpPt6' transform='translate(263.8,315.7) scale(3.38)' color='rgb( 31, 120, 180)'/>
	<use xlink:href='#gpPt6' transform='translate(294.8,309.6) scale(3.38)' color='rgb( 31, 120, 180)'/>
	<use xlink:href='#gpPt6' transform='translate(224.6,303.5) scale(3.38)' color='rgb( 31, 120, 180)'/>
	<use xlink:href='#gpPt6' transform='translate(258.3,297.4) scale(3.38)' color='rgb( 31, 120, 180)'/>
	<use xlink:href='#gpPt6' transform='translate(237.7,291.3) scale(3.38)' color='rgb( 31, 120, 180)'/>
	<use xlink:href='#gpPt6' transform='translate(248.5,285.3) scale(3.38)' color='rgb( 31, 120, 180)'/>
	<use xlink:href='#gpPt6' transform='translate(232.2,279.2) scale(3.38)' color='rgb( 31, 120, 180)'/>
	<use xlink:href='#gpPt6' transform='translate(343.4,273.1) scale(3.38)' color='rgb( 31, 120, 180)'/>
	<use xlink:href='#gpPt6' transform='translate(260.4,267.0) scale(3.38)' color='rgb( 31, 120, 180)'/>
	<use xlink:href='#gpPt6' transform='translate(216.9,260.9) scale(3.38)' color='rgb( 31, 120, 180)'/>
	<use xlink:href='#gpPt6' transform='translate(259.6,254.8) scale(3.38)' color='rgb( 31, 120, 180)'/>
	<use xlink:href='#gpPt6' transform='translate(238.4,248.8) scale(3.38)' color='rgb( 31, 120, 180)'/>
	<use xlink:href='#gpPt6' transform='translate(231.2,242.7) scale(3.38)' color='rgb( 31, 120, 180)'/>
	<use xlink:href='#gpPt6' transform='translate(236.1,236.6) scale(3.38)' color='rgb( 31, 120, 180)'/>
	<use xlink:href='#gpPt6' transform='translate(246.7,230.5) scale(3.38)' color='rgb( 31, 120, 180)'/>
	<use xlink:href='#gpPt6' transform='translate(245.0,224.4) scale(3.38)' color='rgb( 31, 120, 180)'/>
	<use xlink:href='#gpPt6' transform='translate(237.0,218.3) scale(3.38)' color='rgb( 31, 120, 180)'/>
	<use xlink:href='#gpPt6' transform='translate(281.9,212.3) scale(3.38)' color='rgb( 31, 120, 180)'/>
	<use xlink:href='#gpPt6' transform='translate(302.5,206.2) scale(3.38)' color='rgb( 31, 120, 180)'/>
	<use xlink:href='#gpPt6' transform='translate(247.6,200.1) scale(3.38)' color='rgb( 31, 120, 180)'/>
	<use xlink:href='#gpPt6' transform='translate(267.9,194.0) scale(3.38)' color='rgb( 31, 120, 180)'/>
	<use xlink:href='#gpPt6' transform='translate(220.7,187.9) scale(3.38)' color='rgb( 31, 120, 180)'/>
	<use xlink:href='#gpPt6' transform='translate(215.9,181.8) scale(3.38)' color='rgb( 31, 120, 180)'/>
	<use xlink:href='#gpPt6' transform='translate(257.2,175.8) scale(3.38)' color='rgb( 31, 120, 180)'/>
	<use xlink:href='#gpPt6' transform='translate(255.2,169.7) scale(3.38)' color='rgb( 31, 120, 180)'/>
	<use xlink:href='#gpPt6' transform='translate(234.3,163.6) scale(3.38)' color='rgb( 31, 120, 180)'/>
	<use xlink:href='#gpPt6' transform='translate(216.9,157.5) scale(3.38)' color='rgb( 31, 120, 180)'/>
	<use xlink:href='#gpPt6' transform='translate(250.0,145.3) scale(3.38)' color='rgb( 31, 120, 180)'/>
	<use xlink:href='#gpPt6' transform='translate(232.0,139.3) scale(3.38)' color='rgb( 31, 120, 180)'/>
	<use xlink:href='#gpPt6' transform='translate(244.6,133.2) scale(3.38)' color='rgb( 31, 120, 180)'/>
	<use xlink:href='#gpPt6' transform='translate(233.5,127.1) scale(3.38)' color='rgb( 31, 120, 180)'/>
	<use xlink:href='#gpPt6' transform='translate(235.1,121.0) scale(3.38)' color='rgb( 31, 120, 180)'/>
	<use xlink:href='#gpPt6' transform='translate(245.1,114.9) scale(3.38)' color='rgb( 31, 120, 180)'/>
	<use xlink:href='#gpPt6' transform='translate(221.5,108.8) scale(3.38)' color='rgb( 31, 120, 180)'/>
	<use xlink:href='#gpPt6' transform='translate(220.3,102.8) scale(3.38)' color='rgb( 31, 120, 180)'/>
	<use xlink:href='#gpPt6' transform='translate(321.4,96.7) scale(3.38)' color='rgb( 31, 120, 180)'/>
	<use xlink:href='#gpPt6' transform='translate(329.3,90.6) scale(3.38)' color='rgb( 31, 120, 180)'/>
	<use xlink:href='#gpPt6' transform='translate(365.2,84.5) scale(3.38)' color='rgb( 31, 120, 180)'/>
	<use xlink:href='#gpPt6' transform='translate(288.6,78.4) scale(3.38)' color='rgb( 31, 120, 180)'/>
	<use xlink:href='#gpPt6' transform='translate(287.6,72.3) scale(3.38)' color='rgb( 31, 120, 180)'/>
	<use xlink:href='#gpPt6' transform='translate(222.2,66.3) scale(3.38)' color='rgb( 31, 120, 180)'/>
	<use xlink:href='#gpPt6' transform='translate(252.9,60.2) scale(3.38)' color='rgb( 31, 120, 180)'/>
	<use xlink:href='#gpPt6' transform='translate(340.6,54.1) scale(3.38)' color='rgb( 31, 120, 180)'/>
	<use xlink:href='#gpPt6' transform='translate(1117.7,99.1) scale(3.38)' color='rgb( 31, 120, 180)'/>
</g>
	</g>
	<g id="gnuplot_plot_4" ><title>Mild outliers</title>
<g fill="none" color="black" stroke="currentColor" stroke-width="1.00" stroke-linecap="butt" stroke-linejoin="miter">
	<g transform="translate(1147.1,121.0)" stroke="none" fill="black" font-family="Helvetica" font-size="12.00"  text-anchor="start">
		<text><tspan font-family="Helvetica" >Mild outliers</tspan></text>
	</g>
</g>
<g fill="none" color="black" stroke="currentColor" stroke-width="1.00" stroke-linecap="butt" stroke-linejoin="miter">
	<use xlink:href='#gpPt6' transform='translate(369.9,510.3) scale(3.38)' color='rgb(255, 127,   0)'/>
	<use xlink:href='#gpPt6' transform='translate(386.2,461.7) scale(3.38)' color='rgb(255, 127,   0)'/>
	<use xlink:href='#gpPt6' transform='translate(428.5,352.2) scale(3.38)' color='rgb(255, 127,   0)'/>
	<use xlink:href='#gpPt6' transform='translate(1117.7,117.1) scale(3.38)' color='rgb(255, 127,   0)'/>
</g>
	</g>
	<g id="gnuplot_plot_5" ><title>Severe outliers</title>
<g fill="none" color="black" stroke="currentColor" stroke-width="1.00" stroke-linecap="butt" stroke-linejoin="miter">
	<g transform="translate(1147.1,139.0)" stroke="none" fill="black" font-family="Helvetica" font-size="12.00"  text-anchor="start">
		<text><tspan font-family="Helvetica" >Severe outliers</tspan></text>
	</g>
</g>
<g fill="none" color="black" stroke="currentColor" stroke-width="1.00" stroke-linecap="butt" stroke-linejoin="miter">
	<use xlink:href='#gpPt6' transform='translate(847.9,625.9) scale(3.38)' color='rgb(227,  26,  28)'/>
	<use xlink:href='#gpPt6' transform='translate(645.0,577.2) scale(3.38)' color='rgb(227,  26,  28)'/>
	<use xlink:href='#gpPt6' transform='translate(683.8,552.9) scale(3.38)' color='rgb(227,  26,  28)'/>
	<use xlink:href='#gpPt6' transform='translate(497.3,492.1) scale(3.38)' color='rgb(227,  26,  28)'/>
	<use xlink:href='#gpPt6' transform='translate(497.4,455.6) scale(3.38)' color='rgb(227,  26,  28)'/>
	<use xlink:href='#gpPt6' transform='translate(461.3,151.4) scale(3.38)' color='rgb(227,  26,  28)'/>
	<use xlink:href='#gpPt6' transform='translate(1117.7,135.1) scale(3.38)' color='rgb(227,  26,  28)'/>
</g>
	</g>
	<g id="gnuplot_plot_6" ><title>gnuplot_plot_6</title>
<g fill="none" color="white" stroke="rgb(227,  26,  28)" stroke-width="2.00" stroke-linecap="butt" stroke-linejoin="miter">
</g>
<g fill="none" color="black" stroke="currentColor" stroke-width="2.00" stroke-linecap="butt" stroke-linejoin="miter">
	<path stroke='rgb(255, 127,   0)'  d='M157.8,662.4 L157.8,54.1  '/></g>
	</g>
	<g id="gnuplot_plot_7" ><title>gnuplot_plot_7</title>
<g fill="none" color="black" stroke="currentColor" stroke-width="2.00" stroke-linecap="butt" stroke-linejoin="miter">
	<path stroke='rgb(255, 127,   0)'  d='M368.4,662.4 L368.4,54.1  '/></g>
	</g>
	<g id="gnuplot_plot_8" ><title>gnuplot_plot_8</title>
<g fill="none" color="black" stroke="currentColor" stroke-width="2.00" stroke-linecap="butt" stroke-linejoin="miter">
	<path stroke='rgb(227,  26,  28)'  d='M78.9,662.4 L78.9,54.1  '/></g>
	</g>
	<g id="gnuplot_plot_9" ><title>gnuplot_plot_9</title>
<g fill="none" color="black" stroke="currentColor" stroke-width="2.00" stroke-linecap="butt" stroke-linejoin="miter">
	<path stroke='rgb(227,  26,  28)'  d='M447.4,662.4 L447.4,54.1  '/></g>
	</g>
<g fill="none" color="black" stroke="currentColor" stroke-width="2.00" stroke-linecap="butt" stroke-linejoin="miter">
</g>
<g fill="none" color="black" stroke="black" stroke-width="1.00" stroke-linecap="butt" stroke-linejoin="miter">
</g>
<g fill="none" color="black" stroke="currentColor" stroke-width="1.00" stroke-linecap="butt" stroke-linejoin="miter">
	<path stroke='black'  d='M71.9,54.1 L71.9,662.4 L970.7,662.4 L970.7,54.1 L71.9,54.1 Z  '/></g>
<g fill="none" color="black" stroke="currentColor" stroke-width="1.00" stroke-linecap="butt" stroke-linejoin="miter">
</g>
</g>
</svg>

